{
    "page": 1,
    "total_results": 17,
    "total_pages": 1,
    "results": [
        {
            "vote_count": 4623,
            "id": 954,
            "video": false,
            "vote_average": 6.9,
            "title": "Mission: Impossible",
            "popularity": 18.453,
            "poster_path": "\/1PVKS17pIBFsIhgFws2uagPDNLW.jpg",
            "original_language": "en",
            "original_title": "Mission: Impossible",
            "genre_ids": [
                12,
                28,
                53
            ],
            "backdrop_path": "\/tjQHn6xW5BiB1RJ3OZIPDzIOSkF.jpg",
            "adult": false,
            "overview": "When Ethan Hunt, the leader of a crack espionage team whose perilous operation has gone awry with no explanation, discovers that a mole has penetrated the CIA, he's surprised to learn that he's the No. 1 suspect. To clear his name, Hunt now must ferret out the real double agent and, in the process, even the score.",
            "release_date": "1996-05-22"
        },
        {
            "vote_count": 3646,
            "id": 353081,
            "video": false,
            "vote_average": 7.3,
            "title": "Mission: Impossible - Fallout",
            "popularity": 32.37,
            "poster_path": "\/AkJQpZp9WoNdj7pLYSj1L0RcMMN.jpg",
            "original_language": "en",
            "original_title": "Mission: Impossible - Fallout",
            "genre_ids": [
                28
            ],
            "backdrop_path": "\/aw4FOsWr2FY373nKSxbpNi3fz4F.jpg",
            "adult": false,
            "overview": "When an IMF mission ends badly, the world is faced with dire consequences. As Ethan Hunt takes it upon himself to fulfill his original briefing, the CIA begin to question his loyalty and his motives. The IMF team find themselves in a race against time, hunted by assassins while trying to prevent a global catastrophe.",
            "release_date": "2018-07-13"
        },
        {
            "vote_count": 3464,
            "id": 955,
            "video": false,
            "vote_average": 6,
            "title": "Mission: Impossible II",
            "popularity": 18.298,
            "poster_path": "\/di800v3Racf2FQ1ObZ1dskgS0px.jpg",
            "original_language": "en",
            "original_title": "Mission: Impossible II",
            "genre_ids": [
                12,
                28,
                53
            ],
            "backdrop_path": "\/bDdVZNvxb670EMlZqeIy6RdyJ4V.jpg",
            "adult": false,
            "overview": "With computer genius Luther Stickell at his side and a beautiful thief on his mind, agent Ethan Hunt races across Australia and Spain to stop a former IMF agent from unleashing a genetically engineered biological weapon called Chimera. This mission, should Hunt choose to accept it, plunges him into the center of an international crisis of terrifying magnitude.",
            "release_date": "2000-05-24"
        },
        {
            "vote_count": 3497,
            "id": 956,
            "video": false,
            "vote_average": 6.6,
            "title": "Mission: Impossible III",
            "popularity": 16.479,
            "poster_path": "\/qjy8ABAbWooV4jLG6UjzDHlv4RB.jpg",
            "original_language": "en",
            "original_title": "Mission: Impossible III",
            "genre_ids": [
                12,
                28,
                53
            ],
            "backdrop_path": "\/kOELgNnVt6EGCjtDXx85YUw6p8X.jpg",
            "adult": false,
            "overview": "Retired from active duty to train new IMF agents, Ethan Hunt is called back into action to confront sadistic arms dealer, Owen Davian. Hunt must try to protect his girlfriend while working with his new team to complete the mission.",
            "release_date": "2006-05-03"
        },
        {
            "vote_count": 5153,
            "id": 177677,
            "video": false,
            "vote_average": 7.1,
            "title": "Mission: Impossible - Rogue Nation",
            "popularity": 22.653,
            "poster_path": "\/z2sJd1OvAGZLxgjBdSnQoLCfn3M.jpg",
            "original_language": "en",
            "original_title": "Mission: Impossible - Rogue Nation",
            "genre_ids": [
                28
            ],
            "backdrop_path": "\/8XeLfNQrDmFQmPTqxapfWUnKiLf.jpg",
            "adult": false,
            "overview": "Ethan and team take on their most impossible mission yet—eradicating 'The Syndicate', an International and highly-skilled rogue organisation committed to destroying the IMF.",
            "release_date": "2015-07-23"
        },
        {
            "vote_count": 6005,
            "id": 56292,
            "video": false,
            "vote_average": 6.9,
            "title": "Mission: Impossible - Ghost Protocol",
            "popularity": 19.303,
            "poster_path": "\/s58mMsgIVOFfoXPtwPWJ3hDYpXf.jpg",
            "original_language": "en",
            "original_title": "Mission: Impossible - Ghost Protocol",
            "genre_ids": [
                28,
                53,
                12
            ],
            "backdrop_path": "\/pc7a2qrIkIxzqWGqcexd3mHzIxy.jpg",
            "adult": false,
            "overview": "Ethan Hunt and his team are racing against time to track down a dangerous terrorist named Hendricks, who has gained access to Russian nuclear launch codes and is planning a strike on the United States. An attempt to stop him ends in an explosion causing severe destruction to the Kremlin and the IMF to be implicated in the bombing, forcing the President to disavow them. No longer being aided by the government, Ethan and his team chase Hendricks around the globe, although they might still be too late to stop a disaster.",
            "release_date": "2011-12-07"
        },
        {
            "vote_count": 0,
            "id": 575264,
            "video": false,
            "vote_average": 0,
            "title": "Mission: Impossible 7",
            "popularity": 2.202,
            "poster_path": "\/zThtCUHegmEZhoYbh1eAJslhfPK.jpg",
            "original_language": "en",
            "original_title": "Mission: Impossible 7",
            "genre_ids": [
                28
            ],
            "backdrop_path": null,
            "adult": false,
            "overview": "",
            "release_date": "2021-07-23"
        },
        {
            "vote_count": 0,
            "id": 575265,
            "video": false,
            "vote_average": 0,
            "title": "Mission: Impossible 8",
            "popularity": 1.113,
            "poster_path": null,
            "original_language": "en",
            "original_title": "Mission: Impossible 8",
            "genre_ids": [
                28
            ],
            "backdrop_path": null,
            "adult": false,
            "overview": "",
            "release_date": "2022-08-05"
        },
        {
            "vote_count": 1,
            "id": 187339,
            "video": false,
            "vote_average": 6,
            "title": "Mission Impossible",
            "popularity": 0.62,
            "poster_path": "\/hCAl44LZ6MdxZn4kP3bVpGrIHZo.jpg",
            "original_language": "en",
            "original_title": "Mission Impossible",
            "genre_ids": [
                18,
                28
            ],
            "backdrop_path": null,
            "adult": false,
            "overview": "A swordplay flick that takes on a ghostly feeling later on the film.",
            "release_date": "1971-03-05"
        },
        {
            "vote_count": 1,
            "id": 255826,
            "video": false,
            "vote_average": 7,
            "title": "Ah Beng: Mission Impossible",
            "popularity": 0.84,
            "poster_path": "\/cY554SvUCbVpAJ7tPhxFiXAV2pM.jpg",
            "original_language": "cn",
            "original_title": "Ah Beng: Mission Impossible",
            "genre_ids": [
                35
            ],
            "backdrop_path": null,
            "adult": false,
            "overview": "During Chinese New Year, security guard Ah Beng (Jack Lim) receives a call from his company. He is asked to cancel his Lunar New Year holiday for a simple mission, which infuriates him. However, Ah Beng immediately changes his mind knowing that the mission promises a handsome reward of RM1 million.",
            "release_date": "2014-01-23"
        },
        {
            "vote_count": 9,
            "id": 30968,
            "video": false,
            "vote_average": 6.6,
            "title": "Warriors",
            "popularity": 1.542,
            "poster_path": "\/1FN3GpbV1ov7hZuiJ7fCZETLZhP.jpg",
            "original_language": "en",
            "original_title": "Warriors",
            "genre_ids": [
                10770,
                18,
                10752
            ],
            "backdrop_path": "\/uxBy3GM4lvcZBh9E0cGKnPU0fhI.jpg",
            "adult": false,
            "overview": "If the conflict in Bosnia has become something of a forgotten war, it's not for the want of trying from the immensely powerful BBC film Warriors, the story of five young soldiers and their harrowing experiences in the region.",
            "release_date": "1999-11-29"
        },
        {
            "vote_count": 1,
            "id": 457034,
            "video": false,
            "vote_average": 7,
            "title": "EXPO 67 Mission Impossible",
            "popularity": 0.6,
            "poster_path": "\/yS7zDkA6M3cVKQBj8mRikIopAS.jpg",
            "original_language": "fr",
            "original_title": "EXPO 67 Mission Impossible",
            "genre_ids": [
                99,
                36
            ],
            "backdrop_path": "\/dEG1l8oarZbIdYkQ9FBaKyCJ9HA.jpg",
            "adult": false,
            "overview": "",
            "release_date": "2017-04-25"
        },
        {
            "vote_count": 0,
            "id": 263234,
            "video": false,
            "vote_average": 0,
            "title": "Ninja Kids!!! Summer Mission Impossible",
            "popularity": 0.6,
            "poster_path": "\/nx1l0bkTAhp3XDKb7I2FDtuvZm7.jpg",
            "original_language": "en",
            "original_title": "忍たま乱太郎　夏休み宿題大作戦！の段",
            "genre_ids": [
                28,
                35
            ],
            "backdrop_path": "\/iNZiBKlDkv4E37tI7yQn4sTnK5B.jpg",
            "adult": false,
            "overview": "At a time when nations are warring, a sword with mysterious power called \"Heaven's Sword\" is stolen. The sword is said to give its wielder the power to conquer the world. Various ninja all over Dokutake Castle and beyond also manuevering for this sword of immense power. Rantaro and his classmates are assigned to retrieve the stolen sword, their first real ninja mission.",
            "release_date": "2013-07-06"
        },
        {
            "vote_count": 0,
            "id": 541618,
            "video": false,
            "vote_average": 0,
            "title": "Mission: Impossible vs. the Mob",
            "popularity": 0.6,
            "poster_path": null,
            "original_language": "en",
            "original_title": "Mission: Impossible vs. the Mob",
            "genre_ids": [],
            "backdrop_path": null,
            "adult": false,
            "overview": "The first film based on the television series MISSION: IMPOSSIBLE, consisting of a compilation of a two-part episode of the original series from 1967 called THE COUNCIL.",
            "release_date": ""
        },
        {
            "vote_count": 3,
            "id": 279049,
            "video": false,
            "vote_average": 6,
            "title": "Mission Impossible: Samurai",
            "popularity": 1.4,
            "poster_path": "\/tow08OsC8jSzzc3HPNVRufNC1LC.jpg",
            "original_language": "ja",
            "original_title": "超高速！参勤交代",
            "genre_ids": [
                36,
                35
            ],
            "backdrop_path": "\/d5iH7eYG8nfGyycOgOKHNzBXaAy.jpg",
            "adult": false,
            "overview": "During the reign of the eighth shogun of the Tokugawa shogunate, the Yunagaya Domain in the Tohoku region is a small han. But at the han, there is a gold mine. Suddenly, Masaatsu Naito of Yunagaya Domain receives an order to perform Sankin-kotai within 5 days.  Sankin-kotai is a custom that requires the daimyo to visit the shogun in Edo. Unfortunately, the time needed to visit the shogun in Edo for Masaatsu Naito is 8 days. Masaatsu Naito also learns he received the order because a high ranking government official wants the gold mine. Also, the expense for Sankin-kotai is high and the Yunagaya Domain is such a small han that it seems impossible to complete. Nevertheless, Masaatsu Naito begins an unexpected operation to complete Sankin-kotai in 5 days.",
            "release_date": "2014-06-21"
        },
        {
            "vote_count": 2,
            "id": 154499,
            "video": false,
            "vote_average": 7.5,
            "title": "M.A.I.D.",
            "popularity": 1.4,
            "poster_path": "\/pbQJR5rnmTJzSPgCQ6tX42WvdRU.jpg",
            "original_language": "th",
            "original_title": "แจ๋ว",
            "genre_ids": [
                35
            ],
            "backdrop_path": null,
            "adult": false,
            "overview": "A group of house maids are transferred to be secret agents to investigate a suspicious event with modest technology equipment. The new blood agents struggle in the rough and tough mission without the knowledge of how to use the equipment and that leads to the failure of their mission. Are they gonna make it while they have to do housework and the mission in the same time?",
            "release_date": "2004-12-23"
        },
        {
            "vote_count": 0,
            "id": 449039,
            "video": false,
            "vote_average": 0,
            "title": "The Trouble with Pirates",
            "popularity": 0.6,
            "poster_path": null,
            "original_language": "en",
            "original_title": "The Trouble with Pirates",
            "genre_ids": [
                99
            ],
            "backdrop_path": null,
            "adult": false,
            "overview": "Documentary telling the story of the piracy explosion, with unique access to the coastal towns of war-torn Somalia, the boardrooms of the City of London, the operation hubs on board warships in the Gulf of Aden and the heartbreak of a hostage situation gone wrong. (Storyville)",
            "release_date": "2010-09-18"
        }
    ]
}



{
    "page": 2,
    "total_results": 2789,
    "total_pages": 140,
    "results": [
        {
            "vote_count": 60,
            "id": 447856,
            "video": false,
            "vote_average": 7.6,
            "title": "Padman",
            "popularity": 10.297,
            "poster_path": "\/kHyoFs6BIJJwCaFlWu6P5Bnpa70.jpg",
            "original_language": "hi",
            "original_title": "Padman",
            "genre_ids": [
                35,
                18
            ],
            "backdrop_path": "\/iVZ1qKq1UWvVNYhG9OvB5LN4YGf.jpg",
            "adult": false,
            "overview": "",
            "release_date": "2018-02-09"
        },
        {
            "vote_count": 375,
            "id": 7508,
            "video": false,
            "vote_average": 8,
            "title": "Taare Zameen Par",
            "popularity": 10.006,
            "poster_path": "\/t8x4j5KtI6hZRUVtPPztNBo1q5W.jpg",
            "original_language": "hi",
            "original_title": "Taare Zameen Par",
            "genre_ids": [
                18
            ],
            "backdrop_path": "\/5dF4FNwM2qZIuF0WCUs5zvDGU2H.jpg",
            "adult": false,
            "overview": "",
            "release_date": "2007-12-21"
        },
        {
            "vote_count": 121,
            "id": 14073,
            "video": false,
            "vote_average": 7.6,
            "title": "Jodhaa Akbar",
            "popularity": 9.845,
            "poster_path": "\/fi2aEp8RpVoh4jYRsOUcTRinYNd.jpg",
            "original_language": "hi",
            "original_title": "Jodhaa Akbar",
            "genre_ids": [
                12,
                10402,
                10749
            ],
            "backdrop_path": "\/lRu0MT4XemcUmo2AmmI11OdYebl.jpg",
            "adult": false,
            "overview": "",
            "release_date": "2008-02-15"
        },
        {
            "vote_count": 27,
            "id": 33125,
            "video": false,
            "vote_average": 6.6,
            "title": "Border",
            "popularity": 9.475,
            "poster_path": "\/mmGwawOiUaP4Nkr2b1k0xsVhuY5.jpg",
            "original_language": "hi",
            "original_title": "Border",
            "genre_ids": [
                28,
                36
            ],
            "backdrop_path": "\/k45BW6kEXNtOqNT2uAniMnjcKNQ.jpg",
            "adult": false,
            "overview": "",
            "release_date": "1997-07-13"
        },
        {
            "vote_count": 35,
            "id": 554600,
            "video": false,
            "vote_average": 7.3,
            "title": "Uri: The Surgical Strike",
            "popularity": 9.388,
            "poster_path": "\/yNySAgpAnWmPpYinim9E0tUzJWG.jpg",
            "original_language": "hi",
            "original_title": "Uri: The Surgical Strike",
            "genre_ids": [
                28,
                18
            ],
            "backdrop_path": "\/S3EIcOUQYxgd3QzjOo2rZJ2MN8.jpg",
            "adult": false,
            "overview": "",
            "release_date": "2019-01-11"
        },
        {
            "vote_count": 25,
            "id": 496076,
            "video": false,
            "vote_average": 5.5,
            "title": "शून्य",
            "popularity": 8.912,
            "poster_path": "\/2yELSfJGARwJh9JSIKH0Qt2vZr5.jpg",
            "original_language": "hi",
            "original_title": "शून्य",
            "genre_ids": [
                10749,
                18,
                35
            ],
            "backdrop_path": "\/hbwHeozIhmnI4h3Jj9hMhoVcv4W.jpg",
            "adult": false,
            "overview": "",
            "release_date": "2018-12-21"
        },
        {
            "vote_count": 231,
            "id": 348892,
            "video": false,
            "vote_average": 7.9,
            "title": "बजरंगी भाईजान",
            "popularity": 8.901,
            "poster_path": "\/fAVCr7rfEKbQzre4ETCFXNDV6U3.jpg",
            "original_language": "hi",
            "original_title": "बजरंगी भाईजान",
            "genre_ids": [
                28,
                35,
                18
            ],
            "backdrop_path": "\/gT3xgPyb7yoaVJoeiCefxe0TtTD.jpg",
            "adult": false,
            "overview": "",
            "release_date": "2015-07-17"
        },
        {
            "vote_count": 174,
            "id": 7913,
            "video": false,
            "vote_average": 7.5,
            "title": "रंग दे बसंती",
            "popularity": 8.859,
            "poster_path": "\/bAzCzOpJ6lkDDjmhnxsLbIloH9P.jpg",
            "original_language": "hi",
            "original_title": "रंग दे बसंती",
            "genre_ids": [
                35,
                18,
                36
            ],
            "backdrop_path": "\/7RcFejZytmSWENO5RkXXQdwcHCi.jpg",
            "adult": false,
            "overview": "",
            "release_date": "2006-01-26"
        },
        {
            "vote_count": 230,
            "id": 19666,
            "video": false,
            "vote_average": 7.4,
            "title": "लगान",
            "popularity": 8.849,
            "poster_path": "\/yNX9lFRAFeNLNRIXdqZK9gYrYKa.jpg",
            "original_language": "hi",
            "original_title": "लगान",
            "genre_ids": [
                12,
                18,
                10402,
                10749
            ],
            "backdrop_path": "\/lVdqUbABficE68BdlTU9CDcQ7xJ.jpg",
            "adult": false,
            "overview": "",
            "release_date": "2001-06-15"
        },
        {
            "vote_count": 72,
            "id": 496328,
            "video": false,
            "vote_average": 7.8,
            "title": "संजू",
            "popularity": 8.744,
            "poster_path": "\/q1wkN4VQuBTj1AeyTLLz2w6awMA.jpg",
            "original_language": "hi",
            "original_title": "संजू",
            "genre_ids": [
                18,
                35
            ],
            "backdrop_path": "\/o1lchNm1zeACTlUkUryoVsLsXor.jpg",
            "adult": false,
            "overview": "",
            "release_date": "2018-06-29"
        },
        {
            "vote_count": 41,
            "id": 472138,
            "video": false,
            "vote_average": 6,
            "title": "Thugs of Hindostan",
            "popularity": 8.608,
            "poster_path": "\/eonEvymAPpXvWvbBu21HYJx8VdS.jpg",
            "original_language": "hi",
            "original_title": "Thugs of Hindostan",
            "genre_ids": [
                12,
                28
            ],
            "backdrop_path": "\/hIug57bHHM7jtWBr0rsMJEVMCzS.jpg",
            "adult": false,
            "overview": "",
            "release_date": "2018-11-08"
        },
        {
            "vote_count": 139,
            "id": 8079,
            "video": false,
            "vote_average": 7.1,
            "title": "ओम शांति ओम",
            "popularity": 8.269,
            "poster_path": "\/mHjZH6GKLdHQQDxHut5cm4EtoKu.jpg",
            "original_language": "hi",
            "original_title": "ओम शांति ओम",
            "genre_ids": [
                35,
                18,
                10749
            ],
            "backdrop_path": "\/bWbajeSiETXxoN6nPPMvC6PyaDD.jpg",
            "adult": false,
            "overview": "",
            "release_date": "2007-11-09"
        },
        {
            "vote_count": 434,
            "id": 297222,
            "video": false,
            "vote_average": 7.8,
            "title": "पीके",
            "popularity": 8.066,
            "poster_path": "\/sYbWZa413QmoBx0quaTLYMZHMAi.jpg",
            "original_language": "hi",
            "original_title": "पीके",
            "genre_ids": [
                35,
                18
            ],
            "backdrop_path": "\/rkLeovdCmox7Yx2gttcd1Fd1ISG.jpg",
            "adult": false,
            "overview": "",
            "release_date": "2014-12-19"
        },
        {
            "vote_count": 2,
            "id": 514586,
            "video": false,
            "vote_average": 6,
            "title": "फोटोग्राफ",
            "popularity": 7.56,
            "poster_path": "\/rF6ZLCXzsRbVvHjV2UVJDhmIdlx.jpg",
            "original_language": "hi",
            "original_title": "फोटोग्राफ",
            "genre_ids": [
                18,
                10749
            ],
            "backdrop_path": "\/yg3WjGei11sxCTyAoJXnsgxDwbs.jpg",
            "adult": false,
            "overview": "",
            "release_date": "2019-03-15"
        },
        {
            "vote_count": 34,
            "id": 503838,
            "video": false,
            "vote_average": 7.3,
            "title": "Raid",
            "popularity": 7.364,
            "poster_path": "\/qx3m9mRUmDZUVQeAe7CAzFX7xCB.jpg",
            "original_language": "hi",
            "original_title": "Raid",
            "genre_ids": [
                80,
                18,
                53,
                28
            ],
            "backdrop_path": "\/mGV5T4sdJ0Ry6thsyGm1KvYXea6.jpg",
            "adult": false,
            "overview": "",
            "release_date": "2018-03-16"
        },
        {
            "vote_count": 141,
            "id": 41517,
            "video": false,
            "vote_average": 5.4,
            "title": "Ra.One",
            "popularity": 7.276,
            "poster_path": "\/ldAO3XR3rj2c1DtYjAvgDepqQ2p.jpg",
            "original_language": "hi",
            "original_title": "Ra.One",
            "genre_ids": [
                12,
                28,
                878
            ],
            "backdrop_path": "\/ofm87LiMOOd3acouOWTvfpWQiT0.jpg",
            "adult": false,
            "overview": "",
            "release_date": "2011-10-26"
        },
        {
            "vote_count": 126,
            "id": 14163,
            "video": false,
            "vote_average": 7.3,
            "title": "चकदे! इंडिया",
            "popularity": 7.263,
            "poster_path": "\/nxuGpgV1HkTc8KMyqm4NUdcLVr3.jpg",
            "original_language": "hi",
            "original_title": "चकदे! इंडिया",
            "genre_ids": [
                18
            ],
            "backdrop_path": "\/um9jlrtVy9z4Xhf3PXfsPBkVETB.jpg",
            "adult": false,
            "overview": "",
            "release_date": "2007-08-10"
        },
        {
            "vote_count": 68,
            "id": 403867,
            "video": false,
            "vote_average": 7.1,
            "title": "काबिल",
            "popularity": 7.252,
            "poster_path": "\/1scmyOBJkEGvb0unRCANHHH3n3S.jpg",
            "original_language": "hi",
            "original_title": "काबिल",
            "genre_ids": [
                28,
                53,
                18
            ],
            "backdrop_path": "\/zqRGIqDKoNZfj0XvkuX7hNJWq7D.jpg",
            "adult": false,
            "overview": "",
            "release_date": "2017-01-26"
        },
        {
            "vote_count": 100,
            "id": 363343,
            "video": false,
            "vote_average": 6.5,
            "title": "रईस",
            "popularity": 7.239,
            "poster_path": "\/zFYFUfnoXWxeA3n7v4acEqgk2iE.jpg",
            "original_language": "hi",
            "original_title": "रईस",
            "genre_ids": [
                53,
                28,
                80
            ],
            "backdrop_path": "\/2GQUfRpv9nQt4DRqS00mFoOBEly.jpg",
            "adult": false,
            "overview": "",
            "release_date": "2017-01-25"
        },
        {
            "vote_count": 400,
            "id": 26022,
            "video": false,
            "vote_average": 7.9,
            "title": "My Name Is Khan",
            "popularity": 7.207,
            "poster_path": "\/ipMQOfE4juN3FQh7uL1os1rwYRs.jpg",
            "original_language": "hi",
            "original_title": "My Name Is Khan",
            "genre_ids": [
                18,
                10749
            ],
            "backdrop_path": "\/mHKG3hvbqevNcZCvWzoY9svUzc4.jpg",
            "adult": false,
            "overview": "",
            "release_date": "2010-02-12"
        }
    ]
}